Capture melt
…
non-character captured output columns can be obtained by specifying
type conversion functions in the pattern.

value.name is used as the column name for the reshaped data in the output (as in melt.data.table).

Comparison with tidyr

The nc::capture_melt_single function was inspired by the tidyr
package, which can accomplish the same computation via:

tidyr::pivot_longer(
  who, new_sp_m014:newrel_f65,
  names_to=c("diagnosis", "gender", "ages"),
  names_pattern="new_?(.*)_(.)(.*)")
#> # A tibble: 405,440 x 8
#>    country     iso2  iso3   year diagnosis gender ages  value
#>    <chr>       <chr> <chr> <int> <chr>     <chr>  <chr> <int>
#>  1 Afghanistan AF    AFG    1980 sp        m      014      NA
#>  2 Afghanistan AF    AFG    1980 sp        m      1524     NA
#>  3 Afghanistan AF    AFG    1980 sp        m      2534     NA
#>  4 Afghanistan AF    AFG    1980 sp        m      3544     NA
#>  5 Afghanistan AF    AFG    1980 sp        m      4554     NA
#>  6 Afghanistan AF    AFG    1980 sp        m      5564     NA
#>  7 Afghanistan AF    AFG    1980 sp        m      65       NA
#>  8 Afghanistan AF    AFG    1980 sp        f      014      NA
#>  9 Afghanistan AF    AFG    1980 sp        f      1524     NA
#> 10 Afghanistan AF    AFG    1980 sp        f      2534     NA
#> # ... with 405,430 more rows

The syntax above is somewhat repetitive, since it requires specifying
columns to melt as the second argument, and it also requires
names_pattern which could be used to identify the columns to melt,
e.g.

names.pattern <- "new_?(.*)_(.)(.*)"
tidyr::pivot_longer(
  who, grep(names.pattern, names(who)),
  names_to=c("diagnosis", "gender", "ages"),
  names_pattern=names.pattern)
#> # A tibble: 405,440 x 8
#>    country     iso2  iso3   year diagnosis gender ages  value
#>    <chr>       <chr> <chr> <int> <chr>     <chr>  <chr> <int>
#>  1 Afghanistan AF    AFG    1980 sp        m      014      NA
#>  2 Afghanistan AF    AFG    1980 sp        m      1524     NA
#>  3 Afghanistan AF    AFG    1980 sp        m      2534     NA
#>  4 Afghanistan AF    AFG    1980 sp        m      3544     NA
#>  5 Afghanistan AF    AFG    1980 sp        m      4554     NA
#>  6 Afghanistan AF    AFG    1980 sp        m      5564     NA
#>  7 Afghanistan AF    AFG    1980 sp        m      65       NA
#>  8 Afghanistan AF    AFG    1980 sp        f      014      NA
#>  9 Afghanistan AF    AFG    1980 sp        f      1524     NA
#> 10 Afghanistan AF    AFG    1980 sp        f      2534     NA
#> # ... with 405,430 more rows

To accomplish the type conversion using tidyr we need to do a
post-processing step, which requires additional repetition of the
column names we want to convert:

(years.pattern.str <- nc::var_args_list(years.pattern)$pattern)
#> [1] "(?:(?:new_?(.*)_(.))((0|[0-9]{2})([0-9]{0,2})))"
(tidyr.nona <- tidyr::pivot_longer(
  who,
  grep(years.pattern.str, names(who)),
  names_to=c("diagnosis", "gender", "ages", "ymin", "ymax"),
  values_drop_na=TRUE,
  names_pattern=years.pattern.str))
#> # A tibble: 76,046 x 10
#>    country     iso2  iso3   year diagnosis gender ages  ymin  ymax  value
#>    <chr>       <chr> <chr> <int> <chr>     <chr>  <chr> <chr> <chr> <int>
#>  1 Afghanistan AF    AFG    1997 sp        m      014   0     "14"      0
#>  2 Afghanistan AF    AFG    1997 sp        m      1524  15    "24"     10
#>  3 Afghanistan AF    AFG    1997 sp        m      2534  25    "34"      6
#>  4 Afghanistan AF    AFG    1997 sp        m      3544  35    "44"      3
#>  5 Afghanistan AF    AFG    1997 sp        m      4554  45    "54"      5
#>  6 Afghanistan AF    AFG    1997 sp        m      5564  55    "64"      2
#>  7 Afghanistan AF    AFG    1997 sp        m      65    65    ""        0
#>  8 Afghanistan AF    AFG    1997 sp        f      014   0     "14"      5
#>  9 Afghanistan AF    AFG    1997 sp        f      1524  15    "24"     38
#> 10 Afghanistan AF    AFG    1997 sp        f      2534  25    "34"     36
#> # ... with 76,036 more rows
…
