Comparisons with other packages
…
#>                          country iso2 iso3 year diagnosis gender ages value
#>     1:               Afghanistan   AF  AFG 1997        sp      m  014     0
#>     2:               Afghanistan   AF  AFG 1998        sp      m  014    30
#>     3:               Afghanistan   AF  AFG 1999        sp      m  014     8
#>     4:               Afghanistan   AF  AFG 2000        sp      m  014    52
#>     5:               Afghanistan   AF  AFG 2001        sp      m  014   129
#>    ---                                                                     
#> 76042:                  Viet Nam   VN  VNM 2013       rel      f   65  3110
#> 76043: Wallis and Futuna Islands   WF  WLF 2013       rel      f   65     2
#> 76044:                     Yemen   YE  YEM 2013       rel      f   65   360
#> 76045:                    Zambia   ZM  ZMB 2013       rel      f   65   669
#> 76046:                  Zimbabwe   ZW  ZWE 2013       rel      f   65   725
#> 
#> $`tidyr::pivot_longer`
#> # A tibble: 405,440 x 8
#>    country     iso2  iso3   year diagnosis gender ages  value
#>    <chr>       <chr> <chr> <int> <chr>     <chr>  <chr> <int>
#>  1 Afghanistan AF    AFG    1980 sp        m      014      NA
#>  2 Afghanistan AF    AFG    1980 sp        m      1524     NA
#>  3 Afghanistan AF    AFG    1980 sp        m      2534     NA
#>  4 Afghanistan AF    AFG    1980 sp        m      3544     NA
#>  5 Afghanistan AF    AFG    1980 sp        m      4554     NA
#>  6 Afghanistan AF    AFG    1980 sp        m      5564     NA
#>  7 Afghanistan AF    AFG    1980 sp        m      65       NA
#>  8 Afghanistan AF    AFG    1980 sp        f      014      NA
#>  9 Afghanistan AF    AFG    1980 sp        f      1524     NA
#> 10 Afghanistan AF    AFG    1980 sp        f      2534     NA
#> # ... with 405,430 more rows
…
  who,
  "variable",
  "count",
  grep(who.pattern, names(who)),
  na.rm=TRUE)
tidyr::extract(
  gather.result,
  "variable",
  c("diagnosis", "gender", "ages", "ymin.int", "ymax.int"),
  who.pattern,
  convert=TRUE
) %>% dplyr::mutate(
  ymin.num=as.numeric(ymin.int),
  ymax.num=ifelse(is.na(ymax.int), Inf, as.numeric(ymax.int)))
#> # A tibble: 76,046 x 12
#>    country iso2  iso3   year diagnosis gender  ages ymin.int ymax.int count
#>    <chr>   <chr> <chr> <int> <chr>     <chr>  <int>    <int>    <int> <int>
#>  1 Afghan~ AF    AFG    1997 sp        m         14        0       14     0
#>  2 Afghan~ AF    AFG    1998 sp        m         14        0       14    30
#>  3 Afghan~ AF    AFG    1999 sp        m         14        0       14     8
#>  4 Afghan~ AF    AFG    2000 sp        m         14        0       14    52
#>  5 Afghan~ AF    AFG    2001 sp        m         14        0       14   129
#>  6 Afghan~ AF    AFG    2002 sp        m         14        0       14    90
#>  7 Afghan~ AF    AFG    2003 sp        m         14        0       14   127
#>  8 Afghan~ AF    AFG    2004 sp        m         14        0       14   139
#>  9 Afghan~ AF    AFG    2005 sp        m         14        0       14   151
#> 10 Afghan~ AF    AFG    2006 sp        m         14        0       14   193
#> # ... with 76,036 more rows, and 2 more variables: ymin.num <dbl>,
#> #   ymax.num <dbl>
…
